<svg width="278" height="278" viewBox="0 0 278 278" fill="none" xmlns="http://www.w3.org/2000/svg">
<rect width="278" height="278" fill="white" fill-opacity="0.15"/>
<path d="M159 154.556V123.444C159 121 157 119 154.556 119H123.444C121 119 119 121 119 123.444V154.556C119 157 121 159 123.444 159H154.556C157 159 159 157 159 154.556ZM131.222 142.333L136.778 149L144.556 139L154.556 152.333H123.444L131.222 142.333Z" fill="white"/>
</svg>
